﻿



accessory_genes = {


#####################################
#									#
# 			   HAIR 			    #
#									#
#####################################


	hairstyles = {
		index = 99
		inheritable = no
		
		all_hairstyles = {
			index = 0
			male = {
				#weight = <object in gfx/portrait/accessories/>
				1 = male_hair_western_01
				1 = male_hair_western_02
				1 = male_hair_western_03
				1 = male_hair_western_04
				1 = male_hair_western_05
				1 = male_hair_western_06
				1 = male_hair_western_07
				1 = male_hair_western_08
				1 = male_hair_western_09
				1 = male_hair_western_10
				1 = male_hair_mena_01
				1 = male_hair_mena_02
				1 = male_hair_mena_03
				1 = male_hair_mena_04
				1 = male_hair_byzantine_01
				1 = male_hair_byzantine_02
				1 = male_hair_sub_saharan_01
				1 = male_hair_sub_saharan_02
				1 = male_hair_sub_saharan_03
				1 = male_hair_rtt_01
				1 = male_hair_rtt_02
				1 = male_hair_indian_01
				1 = male_hair_indian_02
				1 = male_hair_indian_03
				1 = male_hair_northern_01
				1 = male_hair_northern_02
				1 = male_hair_northern_03
				1 = male_hair_steppe_01
				1 = male_hair_steppe_02
			}

			female = {
				1 = female_hair_western_01
				1 = female_hair_western_02
				1 = female_hair_western_03
				1 = female_hair_western_04
				1 = female_hair_western_05
				1 = female_hair_western_06
				1 = female_hair_western_07
				1 = female_hair_western_08
				1 = female_hair_western_09
				1 = female_hair_western_10
				1 = female_hair_mena_01
				1 = female_hair_mena_02
				1 = female_hair_byzantine_01
				1 = female_hair_byzantine_02
				1 = female_hair_sub_saharan_01
                1 = female_hair_sub_saharan_02
                1 = female_hair_sub_saharan_03
				1 = female_hair_rtt_01
				1 = female_hair_rtt_02
				1 = female_hair_rtt_02_milla
				1 = female_hair_indian_01
				1 = female_hair_indian_02
				1 = female_hair_indian_03
				1 = female_hair_northern_01
				1 = female_hair_northern_02
				1 = female_hair_northern_03
				1 = female_hair_steppe_01
				1 = female_hair_steppe_02
			}
			boy = male
			girl = female
		}		

		no_hairstyles = {
			index = 1
			male = {
				1 = empty
			}		   
			female = male
			boy = male
			girl = male
		}	  

		western_hairstyles = {
			index = 2
			male = {
				2 = male_hair_western_01
				2 = male_hair_western_02
				2 = male_hair_western_03
				2 = male_hair_western_04
				2 = male_hair_western_05
				2 = male_hair_western_06
				2 = male_hair_western_07
				2 = male_hair_western_08
				2 = male_hair_western_09
				# 2 = male_hair_western_10 # Tonsure 
				2 = male_hair_mena_01
				2 = male_hair_mena_02
			}
			
			female = {
				1 = female_hair_western_01
				1 = female_hair_western_02
				1 = female_hair_western_03
				1 = female_hair_western_04
				1 = female_hair_western_05
				1 = female_hair_western_06
				1 = female_hair_western_07
				1 = female_hair_western_08
				1 = female_hair_western_09
				1 = female_hair_western_10
			}
			boy = male
			girl = female
		}    

		mena_hairstyles = {
			index = 3
			male = {
				1 = male_hair_mena_01
				1 = male_hair_mena_02
				1 = male_hair_mena_03
				1 = male_hair_mena_04
			}
			
			female = {
				1 = female_hair_mena_01
				1 = female_hair_mena_02
			}
			boy = male
			girl = female
		}   

		byzantine_hairstyles = {
			index = 4
			male = {
				5 = male_hair_western_01
				5 = male_hair_western_05
				5 = male_hair_western_06
				5 = male_hair_western_08
				10 = male_hair_byzantine_01
				10 = male_hair_byzantine_02
			}
			
			female = {
				1 = female_hair_byzantine_01
				1 = female_hair_byzantine_02

			}
			boy = male
			girl = female
		}

		sub_saharan_hairstyles = {
			index = 5
			set_tags = "very_curly_hair"
			male = {
                1 = empty
				5 = male_hair_sub_saharan_01
				5 = male_hair_sub_saharan_02
				5 = male_hair_sub_saharan_03
			}
			
			female = {
				5 = female_hair_sub_saharan_01
                5 = female_hair_sub_saharan_02
                5 = female_hair_sub_saharan_03
			}
			boy = male
			girl = female
		}
 
		rtt_hairstyles = {
			index = 6
			male = {
				#weight = <object in gfx/portrait/accessories/>
				1 = male_hair_rtt_01
				1 = male_hair_rtt_02
			}

			female = {
				1 = female_hair_rtt_01
				1 = female_hair_rtt_02
				1 = female_hair_rtt_02_milla
			}
			boy = male
			girl = female
		}
		
		indian_hairstyles = {
			index = 7
			male = {
				#weight = <object in gfx/portrait/accessories/>
				1 = male_hair_indian_01
				1 = male_hair_indian_02
				1 = male_hair_indian_03
				
			}

			female = {
				1 = female_hair_indian_01
				1 = female_hair_indian_02
				1 = female_hair_indian_03
				
			}
			boy = male
			girl = female
		}
		
		northern_hairstyles = {
			index = 8
			male = {
				#weight = <object in gfx/portrait/accessories/>
				5 = male_hair_western_04
				5 = male_hair_western_07
				10 = male_hair_northern_01
				10 = male_hair_northern_02
				10 = male_hair_northern_03
				
			}

			female = {
				1 = female_hair_northern_01
				1 = female_hair_northern_02
				1 = female_hair_northern_03
				
			}
			boy = male
			girl = female
		}

		steppe_hairstyles = {
			index = 9
			male = {
				#weight = <object in gfx/portrait/accessories/>
				5 = male_hair_steppe_01
				5 = male_hair_steppe_02
				
			}

			female = {
				5 = female_hair_steppe_01
				5 = female_hair_steppe_02
				
			}
			boy = male
			girl = female
		}


		catholic_devoted_hairstyles = {
			index = 10
			male = {
				2 = male_hair_western_10 # Tonsure 
			}
			
			female = {
				1 = female_hair_western_01
				1 = female_hair_western_02
				1 = female_hair_western_03
				1 = female_hair_western_04
				1 = female_hair_western_05
				1 = female_hair_western_06
				1 = female_hair_western_07
				1 = female_hair_western_08
				1 = female_hair_western_09
				1 = female_hair_western_10
			}
			boy = male
			girl = female
		} 

		western_baby_hairstyles = {
			index = 11
			male = {
				1 = male_hair_western_baby_01
			}		   
			female = {
				1 = female_hair_western_baby_01
			}	
			boy = male
			girl = female
		}	

		sub_saharan_baby_hairstyles = {
			index = 12
			male = {
				1 = male_hair_sub_saharan_01
			}		   
			female = {
				1 = female_hair_sub_saharan_child_01
				1 = female_hair_sub_saharan_01
			}	
			boy = male
			girl = female
		}	
		
		pearlsedger_hairstyles = {
			index = 13
			male = {
				1 = 
				1 = male_hair_western_04
				1 = male_hair_western_03
			}
			female = {
				1 = female_hair_northern_03
				1 = female_hair_western_05
				1 = female_hair_western_02
				1 = female_hair_byzantine_01
			}
			boy = male
			girl = female
		}
		
		dwarven_hairstyles = {
			index = 14
			male = {
				1 = male_hair_rtt_01
				1 = male_hair_western_02
				1 = male_hair_western_04
				1 = male_hair_western_05
				1 = male_hair_western_09
				1 = male_hair_mena_04
				1 = male_hair_indian_03
				1 = male_hair_northern_01
				1 = male_hair_northern_02
				1 = male_hair_northern_03
			}
			female = {
				1 = female_hair_western_01
				1 = female_hair_western_02
				1 = female_hair_western_03
				1 = female_hair_rtt_01
				1 = female_hair_rtt_02
				1 = female_hair_northern_01
				1 = female_hair_northern_02
				1 = female_hair_northern_03
			}
			boy = male
			girl = female
		}
	}
}